3.863245157394866, 875.8752590610161
4.200809412686238, 849.1306973025017
4.5382463813051785, 828.127743598949
4.840255226097032, 805.205698526412
5.159999347247835, 782.2862644625402
5.391024657713083, 761.2676447069958
5.764059465722352, 734.5283049658121
6.066153168295827, 707.7785211899671
6.368077155306059, 688.6842148207378
6.616795313239447, 669.5820754255127
6.954274710749196, 646.6652523703063
7.327097374304412, 629.495259387392
7.682269619282298, 608.4949166925047
8.090647693337031, 587.5024070236132
8.445735080533298, 570.3298030320337
8.800864896620375, 551.2433296888004
9.209158112893489, 534.0785587232167
9.61753618694822, 513.0860490543253
10.025829403221334, 495.9212780887416
10.416302485353874, 482.5816348178005
10.91339937009416, 459.6883108405815
11.374940844334928, 440.61750354933974
11.72990094485876, 429.18650761272204
12.155844579709198, 415.85208635911147
12.58187307234126, 398.68992640219324
12.99008143083275, 385.35289413991734
13.469188465869223, 373.94017526395646
13.912867377078609, 360.60836501901144
14.374281564646944, 347.2791657827313
14.80018277060657, 335.85861388077456
15.190486137175869, 330.1744480164491
15.651900324744203, 316.8452487801692
16.07780153070383, 305.42469687821267
16.59233668956739, 295.9310693712364
17.00046019027726, 286.4217758122684
17.46170466228235, 280.74805398260423
17.798844628665613, 273.14218574062875
18.27786680592046, 265.55720556797587
18.632699619771863, 259.86781768631977
19.040780691590918, 252.2723934790058
19.448819334519165, 246.5908386233457
19.856900406338227, 238.99541441603128
